…
``` r
# Check for participants appear only in the amyloid dataset 
subset(amyloid, !(study_id %in% baseline_original$id))
```

    ## # A tibble: 60 × 3
    ##    study_id  time amyloid
    ##       <dbl> <int>   <dbl>
    ##  1      484     0   0.111
    ##  2      484     2   0.111
    ##  3      484     4   0.109
    ##  4      484     6   0.111
    ##  5      484     8   0.107
    ##  6      485     0   0.106
    ##  7      485     2   0.105
    ##  8      485     4   0.108
    ##  9      485     6   0.107
    ## 10      485     8   0.106
    ## # ℹ 50 more rows
…
